{
    "zawod": [
        "Grafik",
        "Pracownik biurowy",
        "Urzędnik państwowy",
        "Specjalista ds. PR",
        "Lekarz",
        "Specjalista ds. zakupów",
        "Programista",
        "Ekonomista",
        "Architekt wnętrz / krajobrazu",
        "Specjalista ds. marketingu",
        "Programista baz danych",
        "Prawnik",
        "Inżynier Środowiska",
        "Webmaster",
        "Automatyk",
        "Specjalista ds. ochrony środowiska",
        "Projektant wzornictwa",
        "Laborant",
        "Dietetyk",
        "Specjalista ds. transportu",
        "Tester aplikacji",
        "Dyrektor ds.Administracyjnych",
        "Pedagog",
        "Koordynator robót budowlanych",
        "Spedytor",
        "Specjalista ds. turystyki",
        "Specjalista ds. BHP",
        "Kurator sądowy",
        "Key account manager",
        "Dyrektor ds. Rozwoju",
        "Koordynator sprzedaży",
        "Technolog",
        "Specjalista ds. obsługi klienta",
        "Analityk rynku",
        "Fakturzystka",
        "Administrator danych osobowych",
        "Agent celny",
        "Konstruktor",
        "Księgowa",
        "Tłumacz",
        "Specjalista ds. planowania produkcji",
        "Project Manager",
        "Adwokat",
        "Doradca zawodowy",
        "Dyrektor ds. Logistyki",
        "Architekt budownictwa",
        "Pełnomocnik ds. Jakości",
        "Dyrektor ds. Personalnych",
        "Przedstawiciel handlowy",
        "Asystentka zarządu",
        "Farmaceuta",
        "Dyrektor ds. Finansowych",
        "Specjalista ds. reklamacji",
        "Geodeta",
        "Copywriter",
        "Doradca finansowy",
        "Projektant IT",
        "Inżynier Budowy",
        "Recepcjonistka",
        "Lektor",
        "ziennikarz",
        "Specjalista ds. inwestycji",
        "Administrator",
        "Trener",
        "Pracownik socjalny",
        "Handlowiec",
        "Agenta nieruchomości",
        "Product Manager",
        "Pilot wycieczek",
        "Inżynier utrzymania ruchu",
        "Konsultant ds. Wdrożeń",
        "Office Manager",
        "Projektant konstrukcji budowlanych",
        "Notariusz",
        "Specjalista ds. funduszy unijnych",
        "Programista PLC",
        "Rzeczoznawca",
        "Przedstawiciel medyczny",
        "Kierownik Magazynu",
        "Doradca techniczno-handlowy",
        "Specjalista ds. badań i rozwoju",
        "Telemarketer",
        "Specjalista ds. windykacji",
        "Prezenter",
        "Kosztorysant",
        "Kierownik punktu sprzedaży",
        "Dyrektor ds. Sprzedaży",
        "Specjalista ds. dostaw",
        "Dyrektor ds. Marketingu",
        "Radca prawny",
        "Inżynier ds. Wdrażania Produkcji",
        "Specjalista ds. ofertowania",
        "Doradca podatkowy",
        "Dyrektor ds. Produkcji",
        "Specjalista ds. pozycjonowania",
        "Nauczyciel",
        "Kierownik kontraktu",
        "Analityk systemów",
        "Specjalista ds. kadr i płac",
        "Specjalista ds. rekrutacji"
    ],
    "miasta": [
        {
          "nazwa": "Warszawa",
          "dzielnice": [
            "Bemowo",
            "Białołęka",
            "Bielany",
            "Mokotów",
            "Ochota",
            "Praga-Południe",
            "Praga-Północ",
            "Rembertów",
            "Śródmieście",
            "Targówek",
            "Ursus",
            "Ursynów",
            "Wawer",
            "Wesoła",
            "Wilanów",
            "Włochy",
            "Wola",
            "Żoliborz"            
          ]
        },
        {
          "nazwa": "Kraków",
          "dzielnice": [
            "Dzielnica I Stare Miasto",
            "Dzielnica II Grzegórzki",
            "Dzielnica III Prądnik Czerwony",
            "Dzielnica IV Prądnik Biały",
            "Dzielnica V Krowodrza",
            "Dzielnica VI Bronowice",
            "Dzielnica VII Zwierzyniec",
            "Dzielnica VIII Dębniki",
            "Dzielnica IX Łagiewniki-Borek Fałęcki",
            "Dzielnica X Swoszowice",
            "Dzielnica XI Podgórze Duchackie",
            "Dzielnica XII Bieżanów-Prokocim",
            "Dzielnica XIII Podgórze",
            "Dzielnica XIV Czyżyny",
            "Dzielnica XV Mistrzejowice",
            "Dzielnica XVI Bieńczyce",
            "Dzielnica XVII Wzgórza Krzesławickie",
            "Dzielnica XVIII Nowa Huta"            
          ]
        },
        {
          "nazwa": "Łódź",
          "dzielnice": [
            "Chojny",
            "Chojny-Dąbrowa",
            "Górniak",
            "Nad Nerem",
            "Piastów-Kurak",
            "Rokicie",
            "Ruda",
            "Wiskitno"
          ]
        },
        {
          "nazwa": "Wrocław",
          "dzielnice": [
            "Bartoszowice",
            "Biskupin",
            "Dąbie",
            "Nadodrze",
            "Ołbi",
            "Plac Grunwaldzki",
            "Sępolno",
            "Zacisze",
            "Zalesie",
            "Szczytniki"
          ]
        },
        {
          "nazwa": "Poznań",
          "dzielnice": [
            "Chartowo",
            "Fabianowo-Kotowo",
            "Główna",
            "Głuszyna",
            "Górczyn",
            "Grunwald Południe",
            "Grunwald Północ",
            "Jana III Sobieskiego i Marysieńki",
            "Jeżyce",
            "Junikowo",
            "Kiekrz",
            "Krzesiny-Pokrzywno-Garaszewo",
            "Krzyżowniki-Smochowice",
            "Kwiatowe",
            "Ławica"            
          ]
        },
        {
          "nazwa": "Gdańsk",
          "dzielnice": [
            "Aniołki",
            "Brętowo",
            "Brzeźno",
            "Chełm",
            "Jasień",
            "Kokoszki",
            "Krakowiec-Górki Zachodnie",
            "Letnica",
            "Matarnia",
            "Młyniska",
            "Nowy Port",
            "Oliwa",
            "Olszynka",
            "Orunia-Św. Wojciech-Lipce",
            "Osowa",
            "Piecki-Migowo",
            "Przeróbka",
            "Przymorze Małe",
            "Przymorze Wielkie",
            "Rudniki",
            "Siedlce",
            "Stogi",
            "Strzyża",
            "Suchanino",
            "Śródmieście",
            "Ujeścisko-Łostowice",
            "VII Dwór",
            "Wrzeszcz Dolny",
            "Wrzeszcz Górny",
            "Wyspa Sobieszewska",
            "Wzgórze Mickiewicza",
            "Zaspa-Młyniec",
            "Zaspa-Rozstaje",
            "Żabianka-Wejhera-Jelitkowo-Tysiąclecia"            
          ]
        },
        {
          "nazwa": "Szczecin",
          "dzielnice": [
            "Arkońskie-Niemierzyn",
            "Bukowe-Klęskowo",
            "Bukowo",
            "Centrum",
            "Dąbie",
            "Drzetowo-Grabowo",
            "Głębokie-Pilchowo",
            "Golęcino-Gocław",
            "Gumieńce",
            "Kijewo",
            "Krzekowo-Bezrzecze"            
          ]
        },
        {
          "nazwa": "Bydgoszcz",
          "dzielnice": [
            "Babia Wieś",
            "Bajka",
            "Bartodzieje",
            "Bartodzieje Małe",
            "Biedaszkowo",
            "Bielawy",
            "Bielice",
            "Błonie",
            "Bocianowo",
            "Brdyujście",
            "Bydgoszcz Wschód"
          ]
        },
        {
          "nazwa": "Lublin",
          "dzielnice": [
            "Abramowice",
            "Bronowice",
            "Czechów Południowy",
            "Czechów Północny",
            "Czuby Południowe",
            "Czuby Północne",
            "Dziesiąta",
            "Felin",
            "Głusk",
            "Hajdów-Zadębie"            
          ]
        },
        {
          "nazwa": "Katowice",
          "dzielnice": [
            "Bogucice",
            "Brynów - os. Zgrzebnioka",
            "Dąb",
            "Dąbrówka Mała",
            "Giszowiec",
            "Janów-Nikiszowiec",
            "Kostuchna",
            "Koszutka",
            "Ligota-Panewniki",
            "Murcki"            
          ]
        },
        {
          "nazwa": "Gdynia",
          "dzielnice": [
            "Babie Doły",
            "Chwarzno-Wiczlino",
            "Chylonia",
            "Cisowa",
            "Działki Leśne",
            "Dąbrowa",
            "Grabówek",
            "Kamienna Góra",
            "Karwiny",
            "Leszczynki",
            "Mały Kack",
            "Obłuże",
            "Oksywie"            
          ]
        },
        {
          "nazwa": "Toruń",
          "dzielnice": [
            "Os. Brzezina",
            "Os. Fałata",
            "Os. św. Józefa",
            "Os. św. Klemensa",
            "Os. Przy Lesie",
            "Os. Reja",
            "Miasteczko Uniwersyteckie"
          ]
        },
        {
          "nazwa": "Rzeszów",
          "dzielnice": [
            "Osiedle Bzianka",
            "Osiedle Dąbrowskiego",
            "Osiedle Drabinianka",
            "Osiedle Generała Grota Roweckiego",
            "Osiedle Generała Władysława Andersa",
            "Osiedle Kmity",
            "Osiedle Króla Stanisława Augusta",
            "Osiedle Mieszka I",
            "Osiedle Miłocin",
            "Osiedle Paderewskiego"
          ]
        }
    ]
}